5 Population distribution of Tokyo – Human Geography
…
Check your data here

head(df_tokyo_sf, 23)

Simple feature collection with 23 features and 4 fields
Geometry type: MULTIPOLYGON
Dimension:     XY
Bounding box:  xmin: 139.5636 ymin: 35.52086 xmax: 139.919 ymax: 35.81758
Geodetic CRS:  WGS 84
# A tibble: 23 × 5
   pref_code prefecture city_code city                                  geometry
   <chr>     <chr>      <chr>     <chr>                       <MULTIPOLYGON [°]>
 1 13        東京都     13101     千代田区 (((139.7299 35.68555, 139.7333 35.67…
 2 13        東京都     13102     中央区   (((139.7589 35.65892, 139.7646 35.65…
 3 13        東京都     13103     港区     (((139.7714 35.62304, 139.7825 35.62…
 4 13        東京都     13104     新宿区   (((139.6735 35.71852, 139.679 35.718…
 5 13        東京都     13105     文京区   (((139.7174 35.71455, 139.7232 35.71…
 6 13        東京都     13106     台東区   (((139.7632 35.72184, 139.7685 35.71…
 7 13        東京都     13107     墨田区   (((139.8095 35.68689, 139.812 35.688…
 8 13        東京都     13108     江東区   (((139.7715 35.61667, 139.7712 35.61…
 9 13        東京都     13109     品川区   (((139.6954 35.60832, 139.6957 35.61…
10 13        東京都     13110     目黒区   (((139.6664 35.61861, 139.6631 35.61…
# ℹ 13 more rows
…
